<?xml version="1.0" encoding="UTF-8"?>
<svg id="Layer_2" data-name="Layer 2" xmlns="http://www.w3.org/2000/svg" viewBox="0 0 15.73 13.62">
  <g id="Layer_1-2" data-name="Layer 1">
    <polygon points="7.87 13.62 15.73 0 0 0 7.87 13.62" fill="#3768e8"/>
  </g>
</svg>