<?xml version="1.0" encoding="UTF-8"?>
<svg id="Layer_2" data-name="Layer 2" xmlns="http://www.w3.org/2000/svg" viewBox="0 0 24 24">
  <g id="Layer_1-2" data-name="Layer 1">
    <g>
      <rect width="24" height="24" fill="none"/>
      <g>
        <path d="m18.36,5.36c-1.88,0-2.97,1.02-3.93,1.92-.81.75-1.44,1.35-2.42,1.35s-1.62-.59-2.42-1.35c-.96-.9-2.06-1.92-3.93-1.92-1.6,0-4.29.68-4.29,5.27v12.69c0,.38.3.68.68.68h.77c1.93,0,3.5-1.56,3.53-3.48,1.58-.14,2.86-1.32,3.16-2.85,1.04-.1,1.94-.65,2.52-1.46.58.8,1.48,1.36,2.52,1.46.29,1.53,1.58,2.71,3.16,2.85.02,1.92,1.6,3.48,3.53,3.48h.77c.38,0,.68-.31.68-.68v-12.69c0-4.58-2.69-5.27-4.29-5.27Zm-7.04,8.8c0,1.06-.76,1.93-1.77,2.12v-3.97c0-.38-.3-.68-.68-.68s-.68.31-.68.68v4.69c0,1.09-.81,1.98-1.86,2.13v-4.94c0-.38-.3-.68-.68-.68s-.68.31-.68.68v6.28c0,1.19-.97,2.16-2.16,2.16h-.08v-12.01c0-3.9,2.2-3.9,2.93-3.9,1.34,0,2.15.76,3,1.56.72.68,1.53,1.43,2.67,1.65v4.23Zm9.97,8.47h-.08c-1.19,0-2.16-.97-2.16-2.16v-.58s0-.03,0-.04v-5.66c0-.38-.3-.68-.68-.68s-.68.31-.68.68v4.94c-1.04-.15-1.85-1.03-1.86-2.1,0-.01,0-.02,0-.03v-4.69c0-.38-.3-.68-.68-.68s-.68.31-.68.68v3.97c-1.01-.18-1.78-1.06-1.78-2.12v-4.23c1.14-.22,1.94-.97,2.67-1.65.86-.8,1.67-1.56,3-1.56.72,0,2.93,0,2.93,3.9v12.01Z"/>
        <path d="m12,5.44c2.81,0,4.93-1.16,4.93-2.69S14.81.07,12,.07s-4.93,1.16-4.93,2.69,2.12,2.69,4.93,2.69Zm0-4.01c2.14,0,3.57.8,3.57,1.32s-1.42,1.32-3.57,1.32-3.57-.8-3.57-1.32,1.42-1.32,3.57-1.32Z"/>
      </g>
    </g>
  </g>
</svg>