<?xml version="1.0" encoding="UTF-8"?>
<svg id="Layer_2" data-name="Layer 2" xmlns="http://www.w3.org/2000/svg" viewBox="0 0 24 24">
  <g id="Layer_1-2" data-name="Layer 1">
    <g>
      <rect width="24" height="24" fill="none"/>
      <path d="m12,14.16c0,1.2-.75,2.22-1.8,2.64v-4c0-.38-.3-.68-.68-.68s-.68.31-.68.68v4.55c-.14,1.18-.99,2.12-2.12,2.41v-5.75c0-.38-.3-.68-.68-.68s-.68.31-.68.68v7.72c-.46.94-1.42,1.6-2.54,1.6h-.77v-12.69c0-2.75,1.04-4.58,3.61-4.58,3.08,0,3.75,3.27,6.36,3.27s3.27-3.27,6.36-3.27c2.57,0,3.61,1.83,3.61,4.58v12.69h-.77c-1.12,0-2.08-.65-2.54-1.6v-7.72c0-.38-.3-.68-.68-.68s-.68.31-.68.68v5.75c-1.13-.28-1.98-1.23-2.12-2.41v-4.55c0-.38-.3-.68-.68-.68s-.68.31-.68.68v4c-1.05-.42-1.8-1.44-1.8-2.64h0Zm5.28-11c0-1.8-2.27-3.16-5.28-3.16s-5.28,1.36-5.28,3.16,2.27,3.16,5.28,3.16,5.28-1.36,5.28-3.16Zm-2.06,0c0,.28-1.11,1.1-3.22,1.1s-3.22-.82-3.22-1.1,1.11-1.1,3.22-1.1,3.22.82,3.22,1.1Z"/>
    </g>
  </g>
</svg>